{
  "success": true,
  "code": "OK",
  "message": "OK",
  "pageNum": 1,
  "pageSize": 10,
  "pageCount": 3,
  "total": 24,
  "data": {
    "columnList": [
      {
        "index": 0,
        "aggType": null,
        "name": "T289_INQUIRY_NO",
        "cName": "询价单号",
        "dataFormat": null
      },
      {
        "index": 1,
        "aggType": null,
        "name": "T289_INQUIRY_ROWNO",
        "cName": "询单行号",
        "dataFormat": null
      },
      {
        "index": 2,
        "aggType": null,
        "name": "T334_IP_SAME",
        "cName": "IP地址相同",
        "dataFormat": null
      },
      {
        "index": 3,
        "aggType": null,
        "name": "T334_QUOTE_IP",
        "cName": "报价IP地址",
        "dataFormat": null
      },
      {
        "index": 4,
        "aggType": null,
        "name": "T289_SUPPLIER_NAME",
        "cName": "供应商名称",
        "dataFormat": null
      },
      {
        "index": 5,
        "aggType": null,
        "name": "T289_QUOTE_DATE",
        "cName": "报价日期",
        "dataFormat": null
      },
      {
        "index": 6,
        "aggType": null,
        "name": "T289_SUPPLIER_CODE",
        "cName": "供应商代码",
        "dataFormat": null
      },
      {
        "index": 7,
        "aggType": null,
        "name": "T289_MAT_CODE",
        "cName": "物料代码",
        "dataFormat": null
      },
      {
        "index": 8,
        "aggType": null,
        "name": "T289_MAT_NAME",
        "cName": "物料名称",
        "dataFormat": null
      },
      {
        "index": 9,
        "aggType": null,
        "name": "T289_INQUIRY_LINE_MAT_PUR_QTY",
        "cName": "询单行物料采购数量",
        "dataFormat": null
      },
      {
        "index": 10,
        "aggType": null,
        "name": "T289_UOM",
        "cName": "计量单位",
        "dataFormat": null
      },
      {
        "index": 11,
        "aggType": null,
        "name": "T334_QUOTE_PERSON_NAME",
        "cName": "报价人名称",
        "dataFormat": null
      },
      {
        "index": 12,
        "aggType": null,
        "name": "T334_JPERSON_NAME",
        "cName": "法人名称",
        "dataFormat": null
      },
      {
        "index": 13,
        "aggType": null,
        "name": "T289_IS_CONFIRMED_SUPPLIER",
        "cName": "是否中标供应商",
        "dataFormat": null
      },
      {
        "index": 14,
        "aggType": "SUM",
        "name": "T289_QUOTE_NOT_TAX_UNITPRICE",
        "cName": "报价未税单价",
        "dataFormat": null
      },
      {
        "index": 15,
        "aggType": "SUM",
        "name": "T289_QUOTE_INTAX_UNITPRICE",
        "cName": "报价含税单价",
        "dataFormat": null
      },
      {
        "index": 16,
        "aggType": "SUM",
        "name": "T289_CHK_EXCLTAX_UNITPRICE",
        "cName": "核价不含税单价",
        "dataFormat": null
      },
      {
        "index": 17,
        "aggType": "SUM",
        "name": "T289_CHK_INTAX_UNITPRICE",
        "cName": "核价含税单价",
        "dataFormat": null
      }
    ],
    "data": [
      [
        "XJ0296948A",
        "XJ0296948A05584017",
        "IP一致",
        "112.41.85.145,112.41.85.145",
        "武钢中冶工业技术服务有限公司",
        "20220313182217",
        "204804",
        "C5686501",
        "改向滚筒组",
        "2.0000",
        "set",
        "周昊",
        "周昊",
        "N",
        "24220.000000",
        "0.000000",
        "0.000000",
        "0.000000"
      ],
      [
        "XJ0296948A",
        "XJ0296948A05584018",
        "IP一致",
        "112.41.85.145,112.41.85.145",
        "武钢中冶工业技术服务有限公司",
        "20220313182217",
        "204804",
        "C5193179",
        "改向滚筒",
        "4.0000",
        "set",
        "周昊",
        "周昊",
        "N",
        "21284.000000",
        "0.000000",
        "0.000000",
        "0.000000"
      ],
      [
        "XJ0296948A",
        "XJ0296948A05584019",
        "IP一致",
        "112.41.85.145,112.41.85.145",
        "武钢中冶工业技术服务有限公司",
        "20220313182217",
        "204804",
        "C5312663",
        "改向滚筒",
        "10.0000",
        "piece",
        "周昊",
        "周昊",
        "N",
        "2990.000000",
        "0.000000",
        "0.000000",
        "0.000000"
      ],
      [
        "XJ0296948A",
        "XJ0296948A05584020",
        "IP一致",
        "112.41.85.145,112.41.85.145",
        "武钢中冶工业技术服务有限公司",
        "20220313182217",
        "204804",
        "C5346733",
        "改向滚筒",
        "5.0000",
        "组",
        "周昊",
        "周昊",
        "N",
        "3590.000000",
        "0.000000",
        "0.000000",
        "0.000000"
      ],
      [
        "XJ0296948A",
        "XJ0296948A05584021",
        "IP一致",
        "112.41.85.145,112.41.85.145",
        "武钢中冶工业技术服务有限公司",
        "20220313182217",
        "204804",
        "C5312714",
        "改向滚筒",
        "5.0000",
        "piece",
        "周昊",
        "周昊",
        "N",
        "9650.000000",
        "0.000000",
        "0.000000",
        "0.000000"
      ],
      [
        "XJ0296948A",
        "XJ0296948A05584022",
        "IP一致",
        "112.41.85.145,112.41.85.145",
        "武钢中冶工业技术服务有限公司",
        "20220313182217",
        "204804",
        "C5312713",
        "改向滚筒",
        "5.0000",
        "piece",
        "周昊",
        "周昊",
        "N",
        "9150.000000",
        "0.000000",
        "0.000000",
        "0.000000"
      ],
      [
        "XJ0296948A",
        "XJ0296948A05584023",
        "IP一致",
        "112.41.85.145,112.41.85.145",
        "艾克玛(惠州)输送设备有限公司",
        "20220315154633",
        "095028",
        "C5686501",
        "改向滚筒组",
        "2.0000",
        "set",
        "周昊",
        "周昊",
        "N",
        "38465.000000",
        "0.000000",
        "0.000000",
        "0.000000"
      ],
      [
        "XJ0296948A",
        "XJ0296948A05584024",
        "IP一致",
        "112.41.85.145,112.41.85.145",
        "艾克玛(惠州)输送设备有限公司",
        "20220315154633",
        "095028",
        "C5193179",
        "改向滚筒",
        "4.0000",
        "set",
        "周昊",
        "周昊",
        "N",
        "15086.000000",
        "0.000000",
        "0.000000",
        "0.000000"
      ],
      [
        "XJ0296948A",
        "XJ0296948A05584025",
        "IP一致",
        "112.41.85.145,112.41.85.145",
        "艾克玛(惠州)输送设备有限公司",
        "20220315154633",
        "095028",
        "C5312663",
        "改向滚筒",
        "10.0000",
        "piece",
        "周昊",
        "周昊",
        "N",
        "93441.000000",
        "0.000000",
        "0.000000",
        "0.000000"
      ],
      [
        "XJ0296948A",
        "XJ0296948A05584026",
        "IP一致",
        "112.41.85.145,112.41.85.145",
        "艾克玛(惠州)输送设备有限公司",
        "20220315154633",
        "095028",
        "C5346733",
        "改向滚筒",
        "5.0000",
        "组",
        "周昊",
        "周昊",
        "N",
        "5869.000000",
        "0.000000",
        "0.000000",
        "0.000000"
      ]
    ],
    "dataList": null,
    "dataCount": 24,
    "dataMap": {
      "T289_INQUIRY_NO": [
        "XJ0296948A",
        "XJ0296948A",
        "XJ0296948A",
        "XJ0296948A",
        "XJ0296948A",
        "XJ0296948A",
        "XJ0296948A",
        "XJ0296948A",
        "XJ0296948A",
        "XJ0296948A"
      ],
      "T289_INQUIRY_ROWNO": [
        "XJ0296948A05584017",
        "XJ0296948A05584018",
        "XJ0296948A05584019",
        "XJ0296948A05584020",
        "XJ0296948A05584021",
        "XJ0296948A05584022",
        "XJ0296948A05584023",
        "XJ0296948A05584024",
        "XJ0296948A05584025",
        "XJ0296948A05584026"
      ],
      "T334_IP_SAME": [
        "IP一致",
        "IP一致",
        "IP一致",
        "IP一致",
        "IP一致",
        "IP一致",
        "IP一致",
        "IP一致",
        "IP一致",
        "IP一致"
      ],
      "T334_QUOTE_IP": [
        "112.41.85.145,112.41.85.145",
        "112.41.85.145,112.41.85.145",
        "112.41.85.145,112.41.85.145",
        "112.41.85.145,112.41.85.145",
        "112.41.85.145,112.41.85.145",
        "112.41.85.145,112.41.85.145",
        "112.41.85.145,112.41.85.145",
        "112.41.85.145,112.41.85.145",
        "112.41.85.145,112.41.85.145",
        "112.41.85.145,112.41.85.145"
      ],
      "T289_SUPPLIER_NAME": [
        "武钢中冶工业技术服务有限公司",
        "武钢中冶工业技术服务有限公司",
        "武钢中冶工业技术服务有限公司",
        "武钢中冶工业技术服务有限公司",
        "武钢中冶工业技术服务有限公司",
        "武钢中冶工业技术服务有限公司",
        "艾克玛(惠州)输送设备有限公司",
        "艾克玛(惠州)输送设备有限公司",
        "艾克玛(惠州)输送设备有限公司",
        "艾克玛(惠州)输送设备有限公司"
      ],
      "T289_QUOTE_DATE": [
        "20220313182217",
        "20220313182217",
        "20220313182217",
        "20220313182217",
        "20220313182217",
        "20220313182217",
        "20220315154633",
        "20220315154633",
        "20220315154633",
        "20220315154633"
      ],
      "T289_SUPPLIER_CODE": [
        "204804",
        "204804",
        "204804",
        "204804",
        "204804",
        "204804",
        "095028",
        "095028",
        "095028",
        "095028"
      ],
      "T289_MAT_CODE": [
        "C5686501",
        "C5193179",
        "C5312663",
        "C5346733",
        "C5312714",
        "C5312713",
        "C5686501",
        "C5193179",
        "C5312663",
        "C5346733"
      ],
      "T289_MAT_NAME": [
        "改向滚筒组",
        "改向滚筒",
        "改向滚筒",
        "改向滚筒",
        "改向滚筒",
        "改向滚筒",
        "改向滚筒组",
        "改向滚筒",
        "改向滚筒",
        "改向滚筒"
      ],
      "T289_INQUIRY_LINE_MAT_PUR_QTY": [
        "2.0000",
        "4.0000",
        "10.0000",
        "5.0000",
        "5.0000",
        "5.0000",
        "2.0000",
        "4.0000",
        "10.0000",
        "5.0000"
      ],
      "T289_UOM": ["set", "set", "piece", "组", "piece", "piece", "set", "set", "piece", "组"],
      "T334_QUOTE_PERSON_NAME": [
        "周昊",
        "周昊",
        "周昊",
        "周昊",
        "周昊",
        "周昊",
        "周昊",
        "周昊",
        "周昊",
        "周昊"
      ],
      "T334_JPERSON_NAME": [
        "周昊",
        "周昊",
        "周昊",
        "周昊",
        "周昊",
        "周昊",
        "周昊",
        "周昊",
        "周昊",
        "周昊"
      ],
      "T289_IS_CONFIRMED_SUPPLIER": ["N", "N", "N", "N", "N", "N", "N", "N", "N", "N"],
      "T289_QUOTE_NOT_TAX_UNITPRICE": [
        "24220.000000",
        "21284.000000",
        "2990.000000",
        "3590.000000",
        "9650.000000",
        "9150.000000",
        "38465.000000",
        "15086.000000",
        "93441.000000",
        "5869.000000"
      ],
      "T289_QUOTE_INTAX_UNITPRICE": [
        "0.000000",
        "0.000000",
        "0.000000",
        "0.000000",
        "0.000000",
        "0.000000",
        "0.000000",
        "0.000000",
        "0.000000",
        "0.000000"
      ],
      "T289_CHK_EXCLTAX_UNITPRICE": [
        "0.000000",
        "0.000000",
        "0.000000",
        "0.000000",
        "0.000000",
        "0.000000",
        "0.000000",
        "0.000000",
        "0.000000",
        "0.000000"
      ],
      "T289_CHK_INTAX_UNITPRICE": [
        "0.000000",
        "0.000000",
        "0.000000",
        "0.000000",
        "0.000000",
        "0.000000",
        "0.000000",
        "0.000000",
        "0.000000",
        "0.000000"
      ]
    },
    "dataConfig": {
      "category": "T289_INQUIRY_NO-T289_INQUIRY_ROWNO-T334_IP_SAME-T334_QUOTE_IP-T289_SUPPLIER_NAME-T289_QUOTE_DATE-T289_SUPPLIER_CODE-T289_MAT_CODE-T289_MAT_NAME-T289_INQUIRY_LINE_MAT_PUR_QTY-T289_UOM-T334_QUOTE_PERSON_NAME-T334_JPERSON_NAME-T289_IS_CONFIRMED_SUPPLIER",
      "group": null,
      "option": {
        "resultLimit": 10,
        "chartLegend": {
          "orient": "horizontal",
          "top": "26",
          "left": "center",
          "show": "true",
          "align": "left"
        },
        "chartAxis": {
          "min": "",
          "max": "",
          "minInterval": ""
        },
        "colorTheme": "",
        "tooltip": {
          "show": true,
          "tooltip": "1"
        },
        "rinIn": {},
        "radarMax": "",
        "dbConfig": {
          "filters": []
        }
      },
      "series": [
        {
          "name": "T289_QUOTE_NOT_TAX_UNITPRICE",
          "type": "table",
          "aggType": "SUM",
          "cName": "报价未税单价"
        },
        {
          "name": "T289_QUOTE_INTAX_UNITPRICE",
          "type": "table",
          "aggType": "SUM",
          "cName": "报价含税单价"
        },
        {
          "name": "T289_CHK_EXCLTAX_UNITPRICE",
          "type": "table",
          "aggType": "SUM",
          "cName": "核价不含税单价"
        },
        {
          "name": "T289_CHK_INTAX_UNITPRICE",
          "type": "table",
          "aggType": "SUM",
          "cName": "核价含税单价"
        }
      ]
    }
  },
  "fieldErrors": null,
  "meta": null
}
